{
  "version": "1.0.0-*",

  "dependencies": {
    "Microsoft.AspNetCore.Http.Features": "1.0.0",
    "NETStandard.Library": "1.6.0"
  },

  "frameworks": {
    "netstandard1.6": {
      "imports": "dnxcore50"
    }
  }
}
